{
  "type": "FeatureCollection",
  "features": [
    {
      "type": "Feature",
      "properties": {},
      "geometry": {
        "coordinates": [
          [
            [77.46236457279923, 13.310942423690946],
            [77.46219774860191, 13.310901838074571],
            [77.461915074268, 13.310207372030263],
            [77.46051560461541, 13.309589566148034],
            [77.46053414063653, 13.309147631047153],
            [77.46115973137626, 13.308466688648863],
            [77.46096973715225, 13.30789848359359],
            [77.46185019819194, 13.307555756090068],
            [77.46276309726977, 13.308967249141247],
            [77.46239237683153, 13.309219783771582],
            [77.46293918947833, 13.30985562872874],
            [77.46289284942333, 13.310261486338788],
            [77.46273992724304, 13.310369714920384],
            [77.46273992724304, 13.310946933202871],
            [77.46236457279923, 13.310942423690946]
          ]
        ],
        "type": "Polygon"
      }
    }
  ]
}
